<svg width="14" height="23" viewBox="0 0 14 23" fill="none" xmlns="http://www.w3.org/2000/svg">
<path d="M12.5 1.5H9.5C8.17392 1.5 6.90215 2.02678 5.96447 2.96447C5.02678 3.90215 4.5 5.17392 4.5 6.5V9.5H1.5V13.5H4.5V21.5H8.5V13.5H11.5L12.5 9.5H8.5V6.5C8.5 6.23478 8.60536 5.98043 8.79289 5.79289C8.98043 5.60536 9.23478 5.5 9.5 5.5H12.5V1.5Z" fill="black" fill-opacity="0.4" stroke="black" stroke-width="2" stroke-linecap="round" stroke-linejoin="round"/>
</svg>
